Reproducible Research: Peer Assessment 1
…
Imputing missing values

To impute missing data, this report uses a for-loop function to replace the NAs with the average steps of each interval calculated previously.

act_rmna<- act
for (i in 1:17568){
        if(is.na(act_rmna$steps[i]))
        {
                act_rmna$steps[i] = filter(b, b$interval==act_rmna$interval[i])[1,2]
        }
}
act_rmna$steps<-unlist(act_rmna$steps)
act_rmna

## # A tibble: 17,568 x 3
##        steps       date interval
##        <dbl>     <date>    <int>
##  1 1.7169811 2012-10-01        0
##  2 0.3396226 2012-10-01        5
##  3 0.1320755 2012-10-01       10
##  4 0.1509434 2012-10-01       15
##  5 0.0754717 2012-10-01       20
##  6 2.0943396 2012-10-01       25
##  7 0.5283019 2012-10-01       30
##  8 0.8679245 2012-10-01       35
##  9 0.0000000 2012-10-01       40
## 10 1.4716981 2012-10-01       45
## # ... with 17,558 more rows
…
