…
## What is mean total number of steps taken per day?  
Calculate the mean and median total number of steps taken per day.  

```r
group_by(act,date) %>%
        summarise(mean=
                mean(steps),median=median(steps))
```

```
## # A tibble: 61 x 3
##          date     mean median
##        <date>    <dbl>  <dbl>
##  1 2012-10-01       NA     NA
##  2 2012-10-02  0.43750      0
##  3 2012-10-03 39.41667      0
##  4 2012-10-04 42.06944      0
##  5 2012-10-05 46.15972      0
##  6 2012-10-06 53.54167      0
##  7 2012-10-07 38.24653      0
##  8 2012-10-08       NA     NA
##  9 2012-10-09 44.48264      0
## 10 2012-10-10 34.37500      0
## # ... with 51 more rows
```
…
```r
act_rmna<- act
for (i in 1:17568){
        if(is.na(act_rmna$steps[i]))
        {
                act_rmna$steps[i] = filter(b, b$interval==act_rmna$interval[i])[1,2]
        }
}
act_rmna$steps<-unlist(act_rmna$steps)
act_rmna
```

```
## # A tibble: 17,568 x 3
##        steps       date interval
##        <dbl>     <date>    <int>
##  1 1.7169811 2012-10-01        0
##  2 0.3396226 2012-10-01        5
##  3 0.1320755 2012-10-01       10
##  4 0.1509434 2012-10-01       15
##  5 0.0754717 2012-10-01       20
##  6 2.0943396 2012-10-01       25
##  7 0.5283019 2012-10-01       30
##  8 0.8679245 2012-10-01       35
##  9 0.0000000 2012-10-01       40
## 10 1.4716981 2012-10-01       45
## # ... with 17,558 more rows
```
…
